Biomass Dry Weight – GRUPO B
…
Remover los outliers

mod <- remove_outliers(data = fb, formula = biomdw ~ riego + geno + riego*geno + (1 | bloque), plot_diag = T)

mod
## $data
## $data$raw
## # A tibble: 150 × 5
##    index riego    geno  bloque biomdw
##    <chr> <chr>    <chr> <chr>   <dbl>
##  1 1     sequia   G01   II       51.8
##  2 2     sequia   G02   IV       37.8
##  3 3     irrigado G01   III      83.6
##  4 4     sequia   G02   I        30.9
##  5 5     irrigado G03   II       80.2
##  6 6     irrigado G04   V       103. 
##  7 7     irrigado G01   I        55.1
##  8 8     irrigado G05   IV       89.5
##  9 9     sequia   G06   II       47.5
## 10 10    sequia   G05   I        56.3
## # ℹ 140 more rows
## 
## $data$clean
##     index    riego geno bloque biomdw
## 1       1   sequia  G01     II  51.78
## 2       2   sequia  G02     IV  37.82
## 3       3 irrigado  G01    III  83.59
## 4       4   sequia  G02      I  30.93
## 5       5 irrigado  G03     II  80.16
…
