Tuber Dry Weight – GRUPO B
…
Este gráfico muestra la variabilidad del peso seco del tubérculo (tubdw) según la interacción entre los niveles de riego (irrigado) y los genotipos. Las cajas representan la distribución de los datos para cada combinación, y se observa una diferencia notable en la respuesta entre los genotipos y las condiciones de riego. Algunos genotipos responden mejor al riego, lo que indica que la interacción entre ambos factores tiene un efecto en el rendimiento del peso seco.

Remover los outliers

mod <- remove_outliers(data = fb, formula = tubdw ~ riego + geno + riego*geno + (1 | bloque), plot_diag = T)

mod
## $data
## $data$raw
## # A tibble: 150 × 5
##    index riego    geno  bloque tubdw
##    <chr> <chr>    <chr> <chr>  <dbl>
##  1 1     sequia   G01   II     19.8 
##  2 2     sequia   G02   IV     17.7 
##  3 3     irrigado G01   III    38.0 
##  4 4     sequia   G02   I      13.5 
##  5 5     irrigado G03   II     51.2 
##  6 6     irrigado G04   V      62.5 
##  7 7     irrigado G01   I      22.4 
##  8 8     irrigado G05   IV     51.4 
##  9 9     sequia   G06   II      2.37
## 10 10    sequia   G05   I      28.7 
## # ℹ 140 more rows
## 
## $data$clean
##     index    riego geno bloque tubdw
## 1       1   sequia  G01     II 19.80
## 2       2   sequia  G02     IV 17.67
## 3       3 irrigado  G01    III 38.02
## 4       4   sequia  G02      I 13.51
## 5       5 irrigado  G03     II 51.15
…
